; ModuleID = 'likely'
source_filename = "likely"

%u0Matrix = type { i32, i32, i32, i32, i32, i32, [0 x i8] }
%f64Matrix = type { i32, i32, i32, i32, i32, i32, [0 x double] }

; Function Attrs: argmemonly nounwind
declare noalias %u0Matrix* @likely_new(i32 zeroext, i32 zeroext, i32 zeroext, i32 zeroext, i32 zeroext, i8* noalias nocapture) #0

; Function Attrs: norecurse nounwind
define private void @multiply_transposed_tmp_thunk0({ %f64Matrix*, %f64Matrix* }* noalias nocapture readonly, i64, i64) #1 {
entry:
  %3 = getelementptr inbounds { %f64Matrix*, %f64Matrix* }, { %f64Matrix*, %f64Matrix* }* %0, i64 0, i32 0
  %4 = load %f64Matrix*, %f64Matrix** %3, align 8
  %5 = getelementptr inbounds { %f64Matrix*, %f64Matrix* }, { %f64Matrix*, %f64Matrix* }* %0, i64 0, i32 1
  %6 = load %f64Matrix*, %f64Matrix** %5, align 8
  %7 = getelementptr inbounds %f64Matrix, %f64Matrix* %6, i64 0, i32 3
  %columns1 = load i32, i32* %7, align 4, !range !0
  %mat_y_step = zext i32 %columns1 to i64
  %8 = mul nuw nsw i64 %mat_y_step, %2
  br label %y_body

y_body:                                           ; preds = %y_body, %entry
  %y = phi i64 [ %1, %entry ], [ %y_increment, %y_body ]
  %9 = getelementptr %f64Matrix, %f64Matrix* %6, i64 0, i32 6, i64 %y
  %10 = load double, double* %9, align 8, !llvm.mem.parallel_loop_access !1
  %11 = getelementptr %f64Matrix, %f64Matrix* %4, i64 0, i32 6, i64 %y
  store double %10, double* %11, align 8, !llvm.mem.parallel_loop_access !1
  %y_increment = add nuw nsw i64 %y, 1
  %y_postcondition = icmp eq i64 %y_increment, %8
  br i1 %y_postcondition, label %y_exit, label %y_body

y_exit:                                           ; preds = %y_body
  ret void
}

declare void @likely_fork(i8* noalias nocapture, i8* noalias nocapture, i64)

; Function Attrs: norecurse nounwind
define private void @multiply_transposed_tmp_thunk1({ %f64Matrix*, %f64Matrix* }* noalias nocapture readonly, i64, i64) #1 {
entry:
  %3 = getelementptr inbounds { %f64Matrix*, %f64Matrix* }, { %f64Matrix*, %f64Matrix* }* %0, i64 0, i32 0
  %4 = load %f64Matrix*, %f64Matrix** %3, align 8
  %5 = getelementptr inbounds { %f64Matrix*, %f64Matrix* }, { %f64Matrix*, %f64Matrix* }* %0, i64 0, i32 1
  %6 = load %f64Matrix*, %f64Matrix** %5, align 8
  %7 = getelementptr inbounds %f64Matrix, %f64Matrix* %4, i64 0, i32 3
  %columns = load i32, i32* %7, align 4, !range !0
  %mat_y_step = zext i32 %columns to i64
  br label %y_body

y_body:                                           ; preds = %x_exit, %entry
  %y = phi i64 [ %1, %entry ], [ %y_increment, %x_exit ]
  %8 = mul nuw nsw i64 %y, %mat_y_step
  br label %x_body

x_body:                                           ; preds = %y_body, %x_body
  %x = phi i64 [ %x_increment, %x_body ], [ 0, %y_body ]
  %9 = add nuw nsw i64 %x, %8
  %10 = getelementptr %f64Matrix, %f64Matrix* %4, i64 0, i32 6, i64 %9
  %11 = load double, double* %10, align 8, !llvm.mem.parallel_loop_access !2
  %12 = getelementptr %f64Matrix, %f64Matrix* %6, i64 0, i32 6, i64 %x
  %13 = load double, double* %12, align 8, !llvm.mem.parallel_loop_access !2
  %14 = fsub fast double %11, %13
  store double %14, double* %10, align 8, !llvm.mem.parallel_loop_access !2
  %x_increment = add nuw nsw i64 %x, 1
  %x_postcondition = icmp eq i64 %x_increment, %mat_y_step
  br i1 %x_postcondition, label %x_exit, label %x_body

x_exit:                                           ; preds = %x_body
  %y_increment = add nuw nsw i64 %y, 1
  %y_postcondition = icmp eq i64 %y_increment, %2
  br i1 %y_postcondition, label %y_exit, label %y_body

y_exit:                                           ; preds = %x_exit
  ret void
}

; Function Attrs: norecurse nounwind
define private void @multiply_transposed_tmp_thunk2({ %f64Matrix*, %f64Matrix*, i32 }* noalias nocapture readonly, i64, i64) #1 {
entry:
  %3 = getelementptr inbounds { %f64Matrix*, %f64Matrix*, i32 }, { %f64Matrix*, %f64Matrix*, i32 }* %0, i64 0, i32 0
  %4 = load %f64Matrix*, %f64Matrix** %3, align 8
  %5 = getelementptr inbounds { %f64Matrix*, %f64Matrix*, i32 }, { %f64Matrix*, %f64Matrix*, i32 }* %0, i64 0, i32 1
  %6 = load %f64Matrix*, %f64Matrix** %5, align 8
  %7 = getelementptr inbounds { %f64Matrix*, %f64Matrix*, i32 }, { %f64Matrix*, %f64Matrix*, i32 }* %0, i64 0, i32 2
  %8 = load i32, i32* %7, align 4
  %9 = getelementptr inbounds %f64Matrix, %f64Matrix* %6, i64 0, i32 3
  %columns1 = load i32, i32* %9, align 4, !range !0
  %dst_y_step = zext i32 %columns1 to i64
  %10 = icmp eq i32 %8, 0
  br label %y_body

y_body:                                           ; preds = %x_exit, %entry
  %y = phi i64 [ %1, %entry ], [ %y_increment, %x_exit ]
  %11 = mul nuw nsw i64 %y, %dst_y_step
  br label %x_body

x_body:                                           ; preds = %y_body, %Flow6
  %x = phi i64 [ %x_increment, %Flow6 ], [ 0, %y_body ]
  %12 = icmp ugt i64 %y, %x
  br i1 %12, label %Flow6, label %loop.preheader

loop.preheader:                                   ; preds = %x_body
  br i1 %10, label %exit4, label %true_entry3

x_exit:                                           ; preds = %Flow6
  %y_increment = add nuw nsw i64 %y, 1
  %y_postcondition = icmp eq i64 %y_increment, %2
  br i1 %y_postcondition, label %y_exit, label %y_body

y_exit:                                           ; preds = %x_exit
  ret void

true_entry3:                                      ; preds = %loop.preheader, %true_entry3
  %13 = phi i32 [ %25, %true_entry3 ], [ 0, %loop.preheader ]
  %14 = phi double [ %24, %true_entry3 ], [ 0.000000e+00, %loop.preheader ]
  %15 = sext i32 %13 to i64
  %16 = mul nuw nsw i64 %15, %dst_y_step
  %17 = add nuw nsw i64 %16, %x
  %18 = getelementptr %f64Matrix, %f64Matrix* %6, i64 0, i32 6, i64 %17
  %19 = load double, double* %18, align 8, !llvm.mem.parallel_loop_access !3
  %20 = add nuw nsw i64 %16, %y
  %21 = getelementptr %f64Matrix, %f64Matrix* %6, i64 0, i32 6, i64 %20
  %22 = load double, double* %21, align 8, !llvm.mem.parallel_loop_access !3
  %23 = fmul fast double %22, %19
  %24 = fadd fast double %23, %14
  %25 = add nuw nsw i32 %13, 1
  %26 = icmp eq i32 %25, %8
  br i1 %26, label %exit4, label %true_entry3

Flow6:                                            ; preds = %x_body, %exit4
  %x_increment = add nuw nsw i64 %x, 1
  %x_postcondition = icmp eq i64 %x_increment, %dst_y_step
  br i1 %x_postcondition, label %x_exit, label %x_body

exit4:                                            ; preds = %true_entry3, %loop.preheader
  %.lcssa = phi double [ 0.000000e+00, %loop.preheader ], [ %24, %true_entry3 ]
  %27 = add nuw nsw i64 %x, %11
  %28 = getelementptr %f64Matrix, %f64Matrix* %4, i64 0, i32 6, i64 %27
  store double %.lcssa, double* %28, align 8, !llvm.mem.parallel_loop_access !3
  %29 = mul nuw nsw i64 %x, %dst_y_step
  %30 = add nuw nsw i64 %29, %y
  %31 = getelementptr %f64Matrix, %f64Matrix* %4, i64 0, i32 6, i64 %30
  store double %.lcssa, double* %31, align 8, !llvm.mem.parallel_loop_access !3
  br label %Flow6
}

define %f64Matrix* @multiply_transposed(%f64Matrix*, %f64Matrix*) {
entry:
  %2 = getelementptr inbounds %f64Matrix, %f64Matrix* %0, i64 0, i32 3
  %columns = load i32, i32* %2, align 4, !range !0
  %3 = getelementptr inbounds %f64Matrix, %f64Matrix* %0, i64 0, i32 4
  %rows = load i32, i32* %3, align 4, !range !0
  %4 = call %u0Matrix* @likely_new(i32 24896, i32 1, i32 %columns, i32 %rows, i32 1, i8* null)
  %5 = zext i32 %rows to i64
  %6 = alloca { %f64Matrix*, %f64Matrix* }, align 8
  %7 = bitcast { %f64Matrix*, %f64Matrix* }* %6 to %u0Matrix**
  store %u0Matrix* %4, %u0Matrix** %7, align 8
  %8 = getelementptr inbounds { %f64Matrix*, %f64Matrix* }, { %f64Matrix*, %f64Matrix* }* %6, i64 0, i32 1
  store %f64Matrix* %0, %f64Matrix** %8, align 8
  %9 = bitcast { %f64Matrix*, %f64Matrix* }* %6 to i8*
  call void @likely_fork(i8* bitcast (void ({ %f64Matrix*, %f64Matrix* }*, i64, i64)* @multiply_transposed_tmp_thunk0 to i8*), i8* %9, i64 %5)
  %10 = alloca { %f64Matrix*, %f64Matrix* }, align 8
  %11 = bitcast { %f64Matrix*, %f64Matrix* }* %10 to %u0Matrix**
  store %u0Matrix* %4, %u0Matrix** %11, align 8
  %12 = getelementptr inbounds { %f64Matrix*, %f64Matrix* }, { %f64Matrix*, %f64Matrix* }* %10, i64 0, i32 1
  store %f64Matrix* %1, %f64Matrix** %12, align 8
  %13 = bitcast { %f64Matrix*, %f64Matrix* }* %10 to i8*
  call void @likely_fork(i8* bitcast (void ({ %f64Matrix*, %f64Matrix* }*, i64, i64)* @multiply_transposed_tmp_thunk1 to i8*), i8* %13, i64 %5)
  %14 = call %u0Matrix* @likely_new(i32 24896, i32 1, i32 %columns, i32 %columns, i32 1, i8* null)
  %dst = bitcast %u0Matrix* %14 to %f64Matrix*
  %15 = zext i32 %columns to i64
  %16 = alloca { %f64Matrix*, %f64Matrix*, i32 }, align 8
  %17 = bitcast { %f64Matrix*, %f64Matrix*, i32 }* %16 to %u0Matrix**
  store %u0Matrix* %14, %u0Matrix** %17, align 8
  %18 = getelementptr inbounds { %f64Matrix*, %f64Matrix*, i32 }, { %f64Matrix*, %f64Matrix*, i32 }* %16, i64 0, i32 1
  %19 = bitcast %f64Matrix** %18 to %u0Matrix**
  store %u0Matrix* %4, %u0Matrix** %19, align 8
  %20 = getelementptr inbounds { %f64Matrix*, %f64Matrix*, i32 }, { %f64Matrix*, %f64Matrix*, i32 }* %16, i64 0, i32 2
  store i32 %rows, i32* %20, align 8
  %21 = bitcast { %f64Matrix*, %f64Matrix*, i32 }* %16 to i8*
  call void @likely_fork(i8* bitcast (void ({ %f64Matrix*, %f64Matrix*, i32 }*, i64, i64)* @multiply_transposed_tmp_thunk2 to i8*), i8* %21, i64 %15)
  %22 = bitcast %u0Matrix* %4 to i8*
  call void @likely_release_mat(i8* %22)
  ret %f64Matrix* %dst
}

declare void @likely_release_mat(i8* noalias nocapture)

attributes #0 = { argmemonly nounwind }
attributes #1 = { norecurse nounwind }

!0 = !{i32 1, i32 -1}
!1 = distinct !{!1}
!2 = distinct !{!2}
!3 = distinct !{!3}
