; ModuleID = 'likely'
source_filename = "likely"

%f64Matrix = type { i32, i32, i32, i32, i32, i32, [0 x double] }

; Function Attrs: norecurse
define %f64Matrix* @sort(%f64Matrix*) #0 {
entry:
  %1 = getelementptr inbounds %f64Matrix, %f64Matrix* %0, i64 0, i32 4
  %len = load i32, i32* %1, align 4, !range !0
  %2 = zext i32 %len to i64
  %3 = getelementptr inbounds %f64Matrix, %f64Matrix* %0, i64 0, i32 3
  %columns = load i32, i32* %3, align 4, !range !0
  %src_y_step = zext i32 %columns to i64
  br label %y_body

y_body:                                           ; preds = %exit, %entry
  %y = phi i64 [ 0, %entry ], [ %y_increment, %exit ]
  %4 = mul nuw nsw i64 %y, %src_y_step
  br label %true_entry

true_entry:                                       ; preds = %y_body, %loop.backedge
  %5 = phi i32 [ %10, %loop.backedge ], [ 0, %y_body ]
  %6 = sext i32 %5 to i64
  %7 = add nuw nsw i64 %6, %4
  %8 = getelementptr %f64Matrix, %f64Matrix* %0, i64 0, i32 6, i64 %7
  %9 = load double, double* %8, align 8, !llvm.mem.parallel_loop_access !1
  %10 = add nuw nsw i32 %5, 1
  %11 = icmp eq i32 %10, %len
  br i1 %11, label %exit5, label %true_entry4

exit:                                             ; preds = %loop.backedge
  %y_increment = add nuw nsw i64 %y, 1
  %y_postcondition = icmp eq i64 %y_increment, %2
  br i1 %y_postcondition, label %y_exit, label %y_body

y_exit:                                           ; preds = %exit
  %12 = bitcast %f64Matrix* %0 to i8*
  %13 = call i8* @likely_retain_mat(i8* %12)
  %14 = bitcast i8* %13 to %f64Matrix*
  ret %f64Matrix* %14

true_entry4:                                      ; preds = %true_entry, %true_entry4
  %15 = phi i32 [ %24, %true_entry4 ], [ %10, %true_entry ]
  %16 = phi i32 [ %23, %true_entry4 ], [ %5, %true_entry ]
  %17 = phi double [ %22, %true_entry4 ], [ %9, %true_entry ]
  %18 = sext i32 %15 to i64
  %19 = add nuw nsw i64 %18, %4
  %20 = getelementptr %f64Matrix, %f64Matrix* %0, i64 0, i32 6, i64 %19
  %element = load double, double* %20, align 8, !llvm.mem.parallel_loop_access !1
  %21 = fcmp fast olt double %element, %17
  %22 = select i1 %21, double %element, double %17
  %23 = select i1 %21, i32 %15, i32 %16
  %24 = add nuw nsw i32 %15, 1
  %25 = icmp eq i32 %24, %len
  br i1 %25, label %exit5, label %true_entry4

exit5:                                            ; preds = %true_entry4, %true_entry
  %.lcssa = phi i32 [ %5, %true_entry ], [ %23, %true_entry4 ]
  %26 = icmp eq i32 %5, %.lcssa
  br i1 %26, label %loop.backedge, label %true_entry8

loop.backedge:                                    ; preds = %exit5, %true_entry8
  br i1 %11, label %exit, label %true_entry

true_entry8:                                      ; preds = %exit5
  %27 = sext i32 %.lcssa to i64
  %28 = add nuw nsw i64 %27, %4
  %29 = getelementptr %f64Matrix, %f64Matrix* %0, i64 0, i32 6, i64 %28
  %30 = load double, double* %29, align 8, !llvm.mem.parallel_loop_access !1
  store double %30, double* %8, align 8, !llvm.mem.parallel_loop_access !1
  store double %9, double* %29, align 8, !llvm.mem.parallel_loop_access !1
  br label %loop.backedge
}

declare i8* @likely_retain_mat(i8* noalias nocapture)

attributes #0 = { norecurse }

!0 = !{i32 1, i32 -1}
!1 = distinct !{!1}
